
*************************************************************
 Geant4 version Name: geant4-10-01    (5-December-2014)
                      Copyright : Geant4 Collaboration
                      Reference : NIM A 506 (2003), 250-303
                            WWW : http://cern.ch/geant4
*************************************************************

==> tau_lab = 82.413101 ms, N_emit = 282423.728537 1/s
Abs_length: 15.382823, trans_prob: 0.850000, glasthicknes: 2.500000
Saphir_ABSL[0] = 15.382823Abs_length: 12.597572, trans_prob: 0.820000, glasthicknes: 2.500000
Saphir_ABSL[1] = 12.597572Abs_length: 12.597572, trans_prob: 0.820000, glasthicknes: 2.500000
Saphir_ABSL[2] = 12.597572Abs_length: 12.597572, trans_prob: 0.820000, glasthicknes: 2.500000
Saphir_ABSL[3] = 12.597572Abs_length: 12.597572, trans_prob: 0.820000, glasthicknes: 2.500000
Saphir_ABSL[4] = 12.597572Abs_length: 12.597572, trans_prob: 0.820000, glasthicknes: 2.500000
Saphir_ABSL[5] = 12.597572Abs_length: 12.597572, trans_prob: 0.820000, glasthicknes: 2.500000
Saphir_ABSL[6] = 12.597572Abs_length: 12.597572, trans_prob: 0.820000, glasthicknes: 2.500000
Saphir_ABSL[7] = 12.597572Abs_length: 12.597572, trans_prob: 0.820000, glasthicknes: 2.500000
Saphir_ABSL[8] = 12.597572Abs_length: 12.597572, trans_prob: 0.820000, glasthicknes: 2.500000
Saphir_ABSL[9] = 12.597572Abs_length: 12.597572, trans_prob: 0.820000, glasthicknes: 2.500000
Saphir_ABSL[10] = 12.597572Abs_length: 12.597572, trans_prob: 0.820000, glasthicknes: 2.500000
Saphir_ABSL[11] = 12.597572Abs_length: 12.597572, trans_prob: 0.820000, glasthicknes: 2.500000
Saphir_ABSL[12] = 12.597572Abs_length: 12.597572, trans_prob: 0.820000, glasthicknes: 2.500000
Saphir_ABSL[13] = 12.597572Abs_length: 12.597572, trans_prob: 0.820000, glasthicknes: 2.500000
Saphir_ABSL[14] = 12.597572Abs_length: 12.597572, trans_prob: 0.820000, glasthicknes: 2.500000
Saphir_ABSL[15] = 12.597572Abs_length: 12.597572, trans_prob: 0.820000, glasthicknes: 2.500000
Saphir_ABSL[16] = 12.597572Abs_length: 11.864027, trans_prob: 0.810000, glasthicknes: 2.500000
Saphir_ABSL[17] = 11.864027Abs_length: 7.009183, trans_prob: 0.700000, glasthicknes: 2.500000
Saphir_ABSL[18] = 7.009183
***** Table : Nb of materials = 5 *****

 Material:   G4_AIR    density:  1.205 mg/cm3  RadL: 303.921 m    Nucl.Int.Length: 710.137 m  
                       Imean:  85.700 eV   temperature: 273.15 K  pressure:   1.00 atm

   --->  Element: C (C)   Z =  6.0   N =  12.0   A =  12.01 g/mole
         --->  Isotope:   C12   Z =  6   N =  12   A =  12.00 g/mole   abundance:  98.93 %
         --->  Isotope:   C13   Z =  6   N =  13   A =  13.00 g/mole   abundance:   1.07 %
          ElmMassFraction:   0.01 %  ElmAbundance   0.02 % 

   --->  Element: N (N)   Z =  7.0   N =  14.0   A =  14.01 g/mole
         --->  Isotope:   N14   Z =  7   N =  14   A =  14.00 g/mole   abundance:  99.63 %
         --->  Isotope:   N15   Z =  7   N =  15   A =  15.00 g/mole   abundance:   0.37 %
          ElmMassFraction:  75.53 %  ElmAbundance  78.44 % 

   --->  Element: O (O)   Z =  8.0   N =  16.0   A =  16.00 g/mole
         --->  Isotope:   O16   Z =  8   N =  16   A =  15.99 g/mole   abundance:  99.76 %
         --->  Isotope:   O17   Z =  8   N =  17   A =  17.00 g/mole   abundance:   0.04 %
         --->  Isotope:   O18   Z =  8   N =  18   A =  18.00 g/mole   abundance:   0.20 %
          ElmMassFraction:  23.18 %  ElmAbundance  21.07 % 

   --->  Element: Ar (Ar)   Z = 18.0   N =  40.0   A =  39.95 g/mole
         --->  Isotope:  Ar36   Z = 18   N =  36   A =  35.97 g/mole   abundance:   0.34 %
         --->  Isotope:  Ar38   Z = 18   N =  38   A =  37.96 g/mole   abundance:   0.06 %
         --->  Isotope:  Ar40   Z = 18   N =  40   A =  39.96 g/mole   abundance:  99.60 %
          ElmMassFraction:   1.28 %  ElmAbundance   0.47 % 


 Material: G4_GLASS_PLATE    density:  2.400 g/cm3   RadL:  10.692 cm   Nucl.Int.Length:  40.671 cm 
                       Imean: 145.400 eV 

   --->  Element: O (O)   Z =  8.0   N =  16.0   A =  16.00 g/mole
         --->  Isotope:   O16   Z =  8   N =  16   A =  15.99 g/mole   abundance:  99.76 %
         --->  Isotope:   O17   Z =  8   N =  17   A =  17.00 g/mole   abundance:   0.04 %
         --->  Isotope:   O18   Z =  8   N =  18   A =  18.00 g/mole   abundance:   0.20 %
          ElmMassFraction:  45.98 %  ElmAbundance  60.39 % 

   --->  Element: Na (Na)   Z = 11.0   N =  23.0   A =  22.99 g/mole
         --->  Isotope:  Na23   Z = 11   N =  23   A =  22.99 g/mole   abundance: 100.00 %
          ElmMassFraction:   9.64 %  ElmAbundance   8.81 % 

   --->  Element: Si (Si)   Z = 14.0   N =  28.1   A =  28.09 g/mole
         --->  Isotope:  Si28   Z = 14   N =  28   A =  27.98 g/mole   abundance:  92.23 %
         --->  Isotope:  Si29   Z = 14   N =  29   A =  28.98 g/mole   abundance:   4.68 %
         --->  Isotope:  Si30   Z = 14   N =  30   A =  29.97 g/mole   abundance:   3.09 %
          ElmMassFraction:  33.66 %  ElmAbundance  25.18 % 

   --->  Element: Ca (Ca)   Z = 20.0   N =  40.1   A =  40.08 g/mole
         --->  Isotope:  Ca40   Z = 20   N =  40   A =  39.96 g/mole   abundance:  96.94 %
         --->  Isotope:  Ca42   Z = 20   N =  42   A =  41.96 g/mole   abundance:   0.65 %
         --->  Isotope:  Ca43   Z = 20   N =  43   A =  42.96 g/mole   abundance:   0.14 %
         --->  Isotope:  Ca44   Z = 20   N =  44   A =  43.96 g/mole   abundance:   2.09 %
         --->  Isotope:  Ca46   Z = 20   N =  46   A =  45.95 g/mole   abundance:   0.00 %
         --->  Isotope:  Ca48   Z = 20   N =  48   A =  47.95 g/mole   abundance:   0.19 %
          ElmMassFraction:  10.72 %  ElmAbundance   5.62 % 


 Material:   SAPHIR    density:  2.230 g/cm3   RadL:  12.633 cm   Nucl.Int.Length:  42.279 cm 
                       Imean: 134.000 eV 

   --->  Element: B (B)   Z =  5.0   N =  10.8   A =  10.81 g/mole
         --->  Isotope:   B10   Z =  5   N =  10   A =  10.01 g/mole   abundance:  19.90 %
         --->  Isotope:   B11   Z =  5   N =  11   A =  11.01 g/mole   abundance:  80.10 %
          ElmMassFraction:   4.01 %  ElmAbundance   7.04 % 

   --->  Element: O (O)   Z =  8.0   N =  16.0   A =  16.00 g/mole
         --->  Isotope:   O16   Z =  8   N =  16   A =  15.99 g/mole   abundance:  99.76 %
         --->  Isotope:   O17   Z =  8   N =  17   A =  17.00 g/mole   abundance:   0.04 %
         --->  Isotope:   O18   Z =  8   N =  18   A =  18.00 g/mole   abundance:   0.20 %
          ElmMassFraction:  53.96 %  ElmAbundance  64.11 % 

   --->  Element: Na (Na)   Z = 11.0   N =  23.0   A =  22.99 g/mole
         --->  Isotope:  Na23   Z = 11   N =  23   A =  22.99 g/mole   abundance: 100.00 %
          ElmMassFraction:   2.82 %  ElmAbundance   2.33 % 

   --->  Element: Al (Al)   Z = 13.0   N =  27.0   A =  26.98 g/mole
         --->  Isotope:  Al27   Z = 13   N =  27   A =  26.98 g/mole   abundance: 100.00 %
          ElmMassFraction:   1.16 %  ElmAbundance   0.82 % 

   --->  Element: Si (Si)   Z = 14.0   N =  28.1   A =  28.09 g/mole
         --->  Isotope:  Si28   Z = 14   N =  28   A =  27.98 g/mole   abundance:  92.23 %
         --->  Isotope:  Si29   Z = 14   N =  29   A =  28.98 g/mole   abundance:   4.68 %
         --->  Isotope:  Si30   Z = 14   N =  30   A =  29.97 g/mole   abundance:   3.09 %
          ElmMassFraction:  37.72 %  ElmAbundance  25.53 % 

   --->  Element: K (K)   Z = 19.0   N =  39.1   A =  39.10 g/mole
         --->  Isotope:   K39   Z = 19   N =  39   A =  38.96 g/mole   abundance:  93.26 %
         --->  Isotope:   K40   Z = 19   N =  40   A =  39.96 g/mole   abundance:   0.01 %
         --->  Isotope:   K41   Z = 19   N =  41   A =  40.96 g/mole   abundance:   6.73 %
          ElmMassFraction:   0.33 %  ElmAbundance   0.16 % 


 Material:    Steel    density:  7.700 g/cm3   RadL:   1.845 cm   Nucl.Int.Length:  16.945 cm 
                       Imean: 271.755 eV 

   --->  Element: Carbon (C)   Z =  6.0   N =  12.0   A =  12.01 g/mole
         --->  Isotope:   C12   Z =  6   N =  12   A =  12.00 g/mole   abundance:  98.93 %
         --->  Isotope:   C13   Z =  6   N =  13   A =  13.00 g/mole   abundance:   1.07 %
          ElmMassFraction:   4.00 %  ElmAbundance  16.29 % 

   --->  Element: Iron (Fe)   Z = 26.0   N =  55.8   A =  55.85 g/mole
         --->  Isotope:  Fe54   Z = 26   N =  54   A =  53.94 g/mole   abundance:   5.84 %
         --->  Isotope:  Fe56   Z = 26   N =  56   A =  55.93 g/mole   abundance:  91.75 %
         --->  Isotope:  Fe57   Z = 26   N =  57   A =  56.94 g/mole   abundance:   2.12 %
         --->  Isotope:  Fe58   Z = 26   N =  58   A =  57.93 g/mole   abundance:   0.28 %
          ElmMassFraction:  88.00 %  ElmAbundance  77.07 % 

   --->  Element: Cobalt (Co)   Z = 27.0   N =  58.9   A =  58.93 g/mole
         --->  Isotope:  Co59   Z = 27   N =  59   A =  58.93 g/mole   abundance: 100.00 %
          ElmMassFraction:   8.00 %  ElmAbundance   6.64 % 


 Material:   Vacuum    density:  0.000 kg/m3   RadL: 366160626750.059 km   Nucl.Int.Length: 855565927142.501 km 
                       Imean:  85.669 eV   temperature: 293.00 K  pressure:   0.00 atm

   --->  Element: C (C)   Z =  6.0   N =  12.0   A =  12.01 g/mole
         --->  Isotope:   C12   Z =  6   N =  12   A =  12.00 g/mole   abundance:  98.93 %
         --->  Isotope:   C13   Z =  6   N =  13   A =  13.00 g/mole   abundance:   1.07 %
          ElmMassFraction:   0.01 %  ElmAbundance   0.02 % 

   --->  Element: N (N)   Z =  7.0   N =  14.0   A =  14.01 g/mole
         --->  Isotope:   N14   Z =  7   N =  14   A =  14.00 g/mole   abundance:  99.63 %
         --->  Isotope:   N15   Z =  7   N =  15   A =  15.00 g/mole   abundance:   0.37 %
          ElmMassFraction:  75.53 %  ElmAbundance  78.44 % 

   --->  Element: O (O)   Z =  8.0   N =  16.0   A =  16.00 g/mole
         --->  Isotope:   O16   Z =  8   N =  16   A =  15.99 g/mole   abundance:  99.76 %
         --->  Isotope:   O17   Z =  8   N =  17   A =  17.00 g/mole   abundance:   0.04 %
         --->  Isotope:   O18   Z =  8   N =  18   A =  18.00 g/mole   abundance:   0.20 %
          ElmMassFraction:  23.18 %  ElmAbundance  21.07 % 

   --->  Element: Ar (Ar)   Z = 18.0   N =  40.0   A =  39.95 g/mole
         --->  Isotope:  Ar36   Z = 18   N =  36   A =  35.97 g/mole   abundance:   0.34 %
         --->  Isotope:  Ar38   Z = 18   N =  38   A =  37.96 g/mole   abundance:   0.06 %
         --->  Isotope:  Ar40   Z = 18   N =  40   A =  39.96 g/mole   abundance:  99.60 %
          ElmMassFraction:   1.28 %  ElmAbundance   0.47 % 


Visualization Manager instantiating with verbosity "warnings (3)"...
Visualization Manager initialising...
Registering graphics systems...

You have successfully registered the following graphics systems.
Current available graphics systems are:
  ASCIITree (ATree)
  DAWNFILE (DAWNFILE)
  G4HepRep (HepRepXML)
  G4HepRepFile (HepRepFile)
  OpenGLImmediateQt (OGLI, OGLIQt)
  OpenGLStoredQt (OGL, OGLS, OGLSQt)
  RayTracer (RayTracer)
  VRML1FILE (VRML1FILE)
  VRML2FILE (VRML2FILE)
  gMocrenFile (gMocrenFile)

Registering model factories...

You have successfully registered the following model factories.
Registered model factories:
  generic
  drawByCharge
  drawByParticleID
  drawByOriginVolume
  drawByAttribute

Registered filter factories:
  chargeFilter
  particleFilter
  originVolumeFilter
  attributeFilter

You have successfully registered the following user vis actions.
Run Duration User Vis Actions: none
End of Event User Vis Actions: none
End of Run User Vis Actions: none

Some /vis commands (optionally) take a string to specify colour.
Available colours:
  black, blue, brown, cyan, gray, green, grey, magenta, red, white, yellow

### Run 0 start.
Using histogram file:lsr_histo.root
Start of run 0
   Number of events requested 2e+06    Number of events processed 0

###########################################################
 Run Summary - Number of events : 2e+06
==> N_tot = 2000000.000000,  N_det = 109693.000000
==> Detection Percentage = 5.485 %,
==> Chamber Percentage = 12.815%,
    equivalent observation length = 0.06407 m
Detected beam photons: 109689/1000000 (10.969%)
Detected background photons: 4/1000000 (0.000%)Background-to-beam-ratio: 1-27422.250, (1-1 at start)
###########################################################
-- Histogram Tree is saved 
WARNING - Attempt to delete the physical volume store while geometry closed !
WARNING - Attempt to delete the logical volume store while geometry closed !
WARNING - Attempt to delete the solid store while geometry closed !
WARNING - Attempt to delete the region store while geometry closed !
