<?xml version="1.0" standalone="no"?>
<svg width="567.429" height="308.78" viewBox="0 0 567.429 308.78" xmlns="http://www.w3.org/2000/svg">
<title>
/home/tommekk/LSR-Detector/geometry/overlength/pmt1_lambda.svg
</title>
<desc>
Creator: ROOT Version 6.04/08
CreationDate: Sun May  8 21:20:43 2016</desc>
<defs>
</defs>
<rect x="0.5" y="0" width="566.929" height="308.28" fill="white"/>
<rect x="57.1929" y="30.828" width="453.543" height="246.624" fill="white"/>
<rect x="57.1929" y="30.828" width="453.543" height="246.624" fill="none" stroke="black"/>
<rect x="57.1929" y="30.828" width="453.543" height="246.624" fill="white"/>
<rect x="57.1929" y="30.828" width="453.543" height="246.624" fill="none" stroke="black"/>
<path d="M57.1929,277.452h 33.5958v -0.458451h 5.5993v -0.152817h 5.5993v -1.22254h 5.5993v 0.764085h 5.5993v -0.458451h 5.5993v 0.152817h 5.5993v -0.916902h 5.5993v 1.22254h 5.5993v -2.59789h 5.5993v 0.305634h 5.5993v 0.916902h 5.5993v -1.68099h
 5.5993v -22.4641h 5.5993v -16.6571h 5.5993v 7.48803h 5.5993v -17.7268h 5.5993v -19.5606h 5.5993v 4.27888h 5.5993v 11.4613h 5.5993v -0.611268h 5.5993v -1.22254h 5.5993v -7.33522h 5.5993v -5.65423h 5.5993v -0.916902h 5.5993v -16.3514h 5.5993v
 -7.94648h 5.5993v -2.29225h 5.5993v -15.1289h 5.5993v -3.66761h 5.5993v -7.79367h 5.5993v -9.16902h 5.5993v 14.6704h 5.5993v -2.90352h 5.5993v -28.424h 5.5993v -24.7564h 5.5993v -12.2254h 5.5993v -24.7564h 5.5993v -9.78029h 5.5993v 5.34859h 5.5993v
 -1.06972h 5.5993v -15.5873h 5.5993v 6.72395h 5.5993v -0.458451h 5.5993v 11.0028h 5.5993v -5.95986h 5.5993v 10.3916h 5.5993v 15.1289h 5.5993v 31.3275h 5.5993v 38.2042h 5.5993v 37.2873h 5.5993v 17.8796h 5.5993v 20.3247h 5.5993v 13.1423h 5.5993v
 21.2416h 5.5993v 12.3782h 5.5993v 2.44507h 5.5993v 1.06972h 5.5993v -0.152817h 5.5993v -0.916902h 5.5993v 2.44507h 5.5993v 0.611268h 5.5993v -0.152817h 5.5993v -0.152817h 5.5993v -0.916902h 5.5993v 0.764085h 5.5993v 0.764085h 5.5993v -1.22254h
 5.5993v 0.764085h 5.5993v 0.458451h 5.5993v -0.305634h 5.5993v 0.152817h 5.5993v 0.152817h 5.5993v 0.305634h 5.5993v -0.305634h 5.5993v 0.458451h 5.5993" fill="none" stroke="#000099"/>
<rect x="442.705" y="20.0382" width="113.386" height="49.3247" fill="white"/>
<path d="M442.705,69.3629h 113.386" fill="none" stroke="black"/>
<path d="M556.091,69.3629v -49.3247" fill="none" stroke="black"/>
<path d="M556.091,20.0382h -113.386" fill="none" stroke="black"/>
<path d="M442.705,20.0382v 49.3247" fill="none" stroke="black"/>
<text x="454.807" y="30.5416" fill="black" font-size="10.908" font-family="Helvetica">
hbeamlambdadet0
</text>
<path d="M442.705,32.3694h 113.386" fill="none" stroke="black"/>
<text x="448.126" y="42.9492" fill="black" font-size="10.908" font-family="Helvetica">
Entries 
</text>
<text x="517.799" y="42.9492" fill="black" font-size="10.908" font-family="Helvetica">
 34534
</text>
<text x="448.126" y="55.3567" fill="black" font-size="10.908" font-family="Helvetica">
Mean  
</text>
<text x="517.799" y="55.3567" fill="black" font-size="10.908" font-family="Helvetica">
  402.2
</text>
<text x="448.126" y="67.7643" fill="black" font-size="10.908" font-family="Helvetica">
Std Dev   
</text>
<text x="517.799" y="67.7643" fill="black" font-size="10.908" font-family="Helvetica">
  9.848
</text>
<path d="M57.1929,277.452h 453.543" fill="none" stroke="black"/>
<text x="487.257" y="297.781" fill="black" font-size="10.3989" font-family="Helvetica">
 [nm]
</text>
<text x="480.576" y="297.781" fill="black" font-size="10.3989" font-family="Times">
&#0955;
</text>
<text x="477.713" y="297.781" fill="black" font-size="10.3989" font-family="Helvetica">
 
</text>
<path d="M57.1929,270.053v 7.39871" fill="none" stroke="black"/>
<path d="M68.3915,273.752v 3.69936" fill="none" stroke="black"/>
<path d="M79.5901,273.752v 3.69936" fill="none" stroke="black"/>
<path d="M90.7887,273.752v 3.69936" fill="none" stroke="black"/>
<path d="M101.987,273.752v 3.69936" fill="none" stroke="black"/>
<path d="M113.186,270.053v 7.39871" fill="none" stroke="black"/>
<path d="M124.385,273.752v 3.69936" fill="none" stroke="black"/>
<path d="M135.583,273.752v 3.69936" fill="none" stroke="black"/>
<path d="M146.782,273.752v 3.69936" fill="none" stroke="black"/>
<path d="M157.98,273.752v 3.69936" fill="none" stroke="black"/>
<path d="M169.179,270.053v 7.39871" fill="none" stroke="black"/>
<path d="M180.378,273.752v 3.69936" fill="none" stroke="black"/>
<path d="M191.576,273.752v 3.69936" fill="none" stroke="black"/>
<path d="M202.775,273.752v 3.69936" fill="none" stroke="black"/>
<path d="M213.973,273.752v 3.69936" fill="none" stroke="black"/>
<path d="M225.172,270.053v 7.39871" fill="none" stroke="black"/>
<path d="M236.371,273.752v 3.69936" fill="none" stroke="black"/>
<path d="M247.569,273.752v 3.69936" fill="none" stroke="black"/>
<path d="M258.768,273.752v 3.69936" fill="none" stroke="black"/>
<path d="M269.966,273.752v 3.69936" fill="none" stroke="black"/>
<path d="M281.165,270.053v 7.39871" fill="none" stroke="black"/>
<path d="M292.364,273.752v 3.69936" fill="none" stroke="black"/>
<path d="M303.562,273.752v 3.69936" fill="none" stroke="black"/>
<path d="M314.761,273.752v 3.69936" fill="none" stroke="black"/>
<path d="M325.959,273.752v 3.69936" fill="none" stroke="black"/>
<path d="M337.158,270.053v 7.39871" fill="none" stroke="black"/>
<path d="M348.357,273.752v 3.69936" fill="none" stroke="black"/>
<path d="M359.555,273.752v 3.69936" fill="none" stroke="black"/>
<path d="M370.754,273.752v 3.69936" fill="none" stroke="black"/>
<path d="M381.952,273.752v 3.69936" fill="none" stroke="black"/>
<path d="M393.151,270.053v 7.39871" fill="none" stroke="black"/>
<path d="M404.35,273.752v 3.69936" fill="none" stroke="black"/>
<path d="M415.548,273.752v 3.69936" fill="none" stroke="black"/>
<path d="M426.747,273.752v 3.69936" fill="none" stroke="black"/>
<path d="M437.945,273.752v 3.69936" fill="none" stroke="black"/>
<path d="M449.144,270.053v 7.39871" fill="none" stroke="black"/>
<path d="M460.343,273.752v 3.69936" fill="none" stroke="black"/>
<path d="M471.541,273.752v 3.69936" fill="none" stroke="black"/>
<path d="M482.74,273.752v 3.69936" fill="none" stroke="black"/>
<path d="M493.938,273.752v 3.69936" fill="none" stroke="black"/>
<path d="M505.137,270.053v 7.39871" fill="none" stroke="black"/>
<path d="M505.137,270.053v 7.39871" fill="none" stroke="black"/>
<text x="48.2213" y="287.282" fill="black" font-size="10.3989" font-family="Helvetica">
360
</text>
<text x="104.532" y="287.282" fill="black" font-size="10.3989" font-family="Helvetica">
370
</text>
<text x="159.889" y="287.282" fill="black" font-size="10.3989" font-family="Helvetica">
380
</text>
<text x="216.2" y="287.282" fill="black" font-size="10.3989" font-family="Helvetica">
390
</text>
<text x="272.511" y="287.282" fill="black" font-size="10.3989" font-family="Helvetica">
400
</text>
<text x="327.868" y="287.282" fill="black" font-size="10.3989" font-family="Helvetica">
410
</text>
<text x="384.179" y="287.282" fill="black" font-size="10.3989" font-family="Helvetica">
420
</text>
<text x="440.49" y="287.282" fill="black" font-size="10.3989" font-family="Helvetica">
430
</text>
<text x="495.847" y="287.282" fill="black" font-size="10.3989" font-family="Helvetica">
440
</text>
<path d="M57.1929,277.452v -246.624" fill="none" stroke="black"/>
<g transform="rotate(-90,28.1784,151.754)">
<text x="28.1784" y="151.754" fill="black" font-size="10.3989" font-family="Helvetica">
 Number of beam photons
</text>
</g>
<path d="M70.7992,277.452h -13.6063" fill="none" stroke="black"/>
<path d="M63.9961,269.811h -6.80315" fill="none" stroke="black"/>
<path d="M63.9961,262.17h -6.80315" fill="none" stroke="black"/>
<path d="M63.9961,254.529h -6.80315" fill="none" stroke="black"/>
<path d="M70.7992,246.888h -13.6063" fill="none" stroke="black"/>
<path d="M63.9961,239.247h -6.80315" fill="none" stroke="black"/>
<path d="M63.9961,231.607h -6.80315" fill="none" stroke="black"/>
<path d="M63.9961,223.966h -6.80315" fill="none" stroke="black"/>
<path d="M70.7992,216.325h -13.6063" fill="none" stroke="black"/>
<path d="M63.9961,208.684h -6.80315" fill="none" stroke="black"/>
<path d="M63.9961,201.043h -6.80315" fill="none" stroke="black"/>
<path d="M63.9961,193.402h -6.80315" fill="none" stroke="black"/>
<path d="M70.7992,185.761h -13.6063" fill="none" stroke="black"/>
<path d="M63.9961,178.121h -6.80315" fill="none" stroke="black"/>
<path d="M63.9961,170.48h -6.80315" fill="none" stroke="black"/>
<path d="M63.9961,162.839h -6.80315" fill="none" stroke="black"/>
<path d="M70.7992,155.198h -13.6063" fill="none" stroke="black"/>
<path d="M63.9961,147.557h -6.80315" fill="none" stroke="black"/>
<path d="M63.9961,139.916h -6.80315" fill="none" stroke="black"/>
<path d="M63.9961,132.276h -6.80315" fill="none" stroke="black"/>
<path d="M70.7992,124.635h -13.6063" fill="none" stroke="black"/>
<path d="M63.9961,116.994h -6.80315" fill="none" stroke="black"/>
<path d="M63.9961,109.353h -6.80315" fill="none" stroke="black"/>
<path d="M63.9961,101.712h -6.80315" fill="none" stroke="black"/>
<path d="M70.7992,94.0713h -13.6063" fill="none" stroke="black"/>
<path d="M63.9961,86.4304h -6.80315" fill="none" stroke="black"/>
<path d="M63.9961,78.7896h -6.80315" fill="none" stroke="black"/>
<path d="M63.9961,71.1487h -6.80315" fill="none" stroke="black"/>
<path d="M70.7992,63.5079h -13.6063" fill="none" stroke="black"/>
<path d="M63.9961,55.867h -6.80315" fill="none" stroke="black"/>
<path d="M63.9961,48.2262h -6.80315" fill="none" stroke="black"/>
<path d="M63.9961,40.5853h -6.80315" fill="none" stroke="black"/>
<path d="M70.7992,32.9445h -13.6063" fill="none" stroke="black"/>
<path d="M70.7992,32.9445h -13.6063" fill="none" stroke="black"/>
<text x="48.2213" y="281.556" fill="black" font-size="10.3989" font-family="Helvetica">
0
</text>
<text x="36.7682" y="251.014" fill="black" font-size="10.3989" font-family="Helvetica">
200
</text>
<text x="36.7682" y="220.472" fill="black" font-size="10.3989" font-family="Helvetica">
400
</text>
<text x="36.7682" y="189.931" fill="black" font-size="10.3989" font-family="Helvetica">
600
</text>
<text x="36.7682" y="159.389" fill="black" font-size="10.3989" font-family="Helvetica">
800
</text>
<text x="30.0872" y="128.848" fill="black" font-size="10.3989" font-family="Helvetica">
1000
</text>
<text x="30.0872" y="98.3059" fill="black" font-size="10.3989" font-family="Helvetica">
1200
</text>
<text x="30.0872" y="67.7643" fill="black" font-size="10.3989" font-family="Helvetica">
1400
</text>
<text x="30.0872" y="37.2226" fill="black" font-size="10.3989" font-family="Helvetica">
1600
</text>
<rect x="442.705" y="20.0382" width="113.386" height="49.3247" fill="white"/>
<path d="M442.705,69.3629h 113.386" fill="none" stroke="black"/>
<path d="M556.091,69.3629v -49.3247" fill="none" stroke="black"/>
<path d="M556.091,20.0382h -113.386" fill="none" stroke="black"/>
<path d="M442.705,20.0382v 49.3247" fill="none" stroke="black"/>
<text x="454.807" y="30.5416" fill="black" font-size="10.908" font-family="Helvetica">
hbeamlambdadet0
</text>
<path d="M442.705,32.3694h 113.386" fill="none" stroke="black"/>
<text x="448.126" y="42.9492" fill="black" font-size="10.908" font-family="Helvetica">
Entries 
</text>
<text x="517.799" y="42.9492" fill="black" font-size="10.908" font-family="Helvetica">
 34534
</text>
<text x="448.126" y="55.3567" fill="black" font-size="10.908" font-family="Helvetica">
Mean  
</text>
<text x="517.799" y="55.3567" fill="black" font-size="10.908" font-family="Helvetica">
  402.2
</text>
<text x="448.126" y="67.7643" fill="black" font-size="10.908" font-family="Helvetica">
Std Dev   
</text>
<text x="517.799" y="67.7643" fill="black" font-size="10.908" font-family="Helvetica">
  9.848
</text>
<text x="208.565" y="15.2708" fill="black" font-size="15.6833" font-family="Helvetica">
Detected wavelengths
</text></svg>
