<?xml version="1.0" standalone="no"?>
<svg width="567.429" height="308.78" viewBox="0 0 567.429 308.78" xmlns="http://www.w3.org/2000/svg">
<title>
/home/tommekk/LSR-Detector/geometry/overlength/pmt3_angles.svg
</title>
<desc>
Creator: ROOT Version 6.04/08
CreationDate: Sun May  8 21:26:48 2016</desc>
<defs>
</defs>
<rect x="0.5" y="0" width="566.929" height="308.28" fill="white"/>
<rect x="57.1929" y="30.828" width="453.543" height="246.624" fill="white"/>
<rect x="57.1929" y="30.828" width="453.543" height="246.624" fill="none" stroke="black"/>
<rect x="57.1929" y="30.828" width="453.543" height="246.624" fill="white"/>
<rect x="57.1929" y="30.828" width="453.543" height="246.624" fill="none" stroke="black"/>
<path d="M57.1929,277.452h 42.8346v -0.206942h 2.51969v 0.206942h 5.03937v -0.206942h 2.51969v 0.206942h 5.03937v -0.206942h 2.51969v -0.413885h 2.51969v 0.206942h 2.51969v -0.413885h 5.03937v 0.413885h 2.51969v 0.206942h 2.51969v -0.413885h 2.51969v
 -0.413885h 2.51969v 0.413885h 2.51969v -0.206942h 2.51969v 0.413885h 5.03937v -0.206942h 7.55905v -0.620827h 2.51969v 0.413885h 2.51969v -0.206942h 2.51969v 0.413885h 2.51969v -1.03471h 2.51969v 1.24165h 2.51969v -1.24165h 2.51969v -1.86248h
 2.51969v 1.24165h 2.51969v -1.4486h 2.51969v 0.82777h 2.51969v -0.206942h 2.51969v -0.413885h 2.51969v 0.620827h 2.51969v -3.93191h 2.51969v -14.279h 2.51969v -14.279h 2.51969v -14.0721h 2.51969v -0.620827h 2.51969v -14.0721h 2.51969v -20.6942h
 2.51969v -15.7276h 2.51969v -20.4873h 2.51969v -28.9719h 2.51969v -31.0414h 2.51969v -17.5901h 2.51969v -20.6942h 2.51969v 16.9693h 2.51969v -2.69025h 2.51969v -10.3471h 2.51969v -12.4165h 2.51969v 7.86381h 2.51969v -6.41522h 2.51969v -8.48464h
 2.51969v 1.4486h 2.51969v 19.0387h 2.51969v 3.51802h 2.51969v -3.93191h 2.51969v 6.00133h 2.51969v 9.31241h 2.51969v 16.1415h 2.51969v 12.4165h 2.51969v 9.31241h 2.51969v 12.6235h 2.51969v 38.6982h 2.51969v 10.1402h 2.51969v -19.4526h 2.51969v
 4.96662h 2.51969v -1.24165h 2.51969v -8.89853h 2.51969v 25.8678h 2.51969v -3.51802h 2.51969v -1.65554h 2.51969v 18.4179h 2.51969v 0.82777h 2.51969v 9.7263h 2.51969v -2.06942h 2.51969v 9.93324h 2.51969v 8.89853h 2.51969v -3.72496h 2.51969v 10.5541h
 2.51969v -2.48331h 2.51969v 2.06942h 2.51969v 2.48331h 2.51969v 0.620827h 2.51969v 0.413885h 2.51969v -3.10414h 2.51969v -6.41522h 2.51969v 0.206942h 2.51969v -5.58745h 2.51969v 9.7263h 2.51969v 9.51935h 2.51969v 14.0721h 2.51969v 3.51802h 2.51969v
 -5.17356h 2.51969v -6.41522h 2.51969v 8.69158h 2.51969v 19.0387h 2.51969v 6.20827h 2.51969v 1.86248h 2.51969v 0.206942h 2.51969v 0.620827h 2.51969v -0.620827h 5.03937v 1.03471h 2.51969v -0.206942h 2.51969v 0.206942h 2.51969v 0.413885h 2.51969v
 0.206942h 2.51969v -0.413885h 2.51969v -0.206942h 2.51969v -0.206942h 5.03937v 0.82777h 2.51969v -1.03471h 2.51969v 0.413885h 2.51969v 0.413885h 2.51969v -0.413885h 2.51969v -0.206942h 2.51969v 0.413885h 2.51969v 0.413885h 7.55905v 0.413885h
 2.51969v -0.206942h 2.51969v -0.620827h 2.51969v 0.413885h 2.51969v 0.413885h 2.51969v -0.206942h 2.51969v -0.206942h 5.03937v 0.413885h 2.51969v -0.413885h 2.51969v 0.413885h 70.5512" fill="none" stroke="#000099"/>
<rect x="442.705" y="20.0382" width="113.386" height="49.3247" fill="white"/>
<path d="M442.705,69.3629h 113.386" fill="none" stroke="black"/>
<path d="M556.091,69.3629v -49.3247" fill="none" stroke="black"/>
<path d="M556.091,20.0382h -113.386" fill="none" stroke="black"/>
<path d="M442.705,20.0382v 49.3247" fill="none" stroke="black"/>
<text x="459.579" y="29.5872" fill="black" font-size="10.908" font-family="Helvetica">
hbeamsegthdet2
</text>
<path d="M442.705,32.3694h 113.386" fill="none" stroke="black"/>
<text x="448.126" y="42.9492" fill="black" font-size="10.908" font-family="Helvetica">
Entries 
</text>
<text x="517.799" y="42.9492" fill="black" font-size="10.908" font-family="Helvetica">
 34472
</text>
<text x="448.126" y="55.3567" fill="black" font-size="10.908" font-family="Helvetica">
Mean  
</text>
<text x="517.799" y="55.3567" fill="black" font-size="10.908" font-family="Helvetica">
  79.04
</text>
<text x="448.126" y="67.7643" fill="black" font-size="10.908" font-family="Helvetica">
Std Dev   
</text>
<text x="517.799" y="67.7643" fill="black" font-size="10.908" font-family="Helvetica">
  14.64
</text>
<path d="M57.1929,277.452h 453.543" fill="none" stroke="black"/>
<text x="507.3" y="296.827" fill="black" font-size="10.3989" font-family="Helvetica">
]
</text>
<text x="503.483" y="296.827" fill="black" font-size="10.3989" font-family="Times">
&#0176;
</text>
<text x="494.893" y="296.827" fill="black" font-size="10.3989" font-family="Helvetica">
' [
</text>
<text x="487.257" y="296.827" fill="black" font-size="10.3989" font-family="Times">
&#0920;
</text>
<text x="484.394" y="296.827" fill="black" font-size="10.3989" font-family="Helvetica">
 
</text>
<path d="M57.1929,270.053v 7.39871" fill="none" stroke="black"/>
<path d="M69.7913,273.752v 3.69936" fill="none" stroke="black"/>
<path d="M82.3898,273.752v 3.69936" fill="none" stroke="black"/>
<path d="M94.9882,273.752v 3.69936" fill="none" stroke="black"/>
<path d="M107.587,270.053v 7.39871" fill="none" stroke="black"/>
<path d="M120.185,273.752v 3.69936" fill="none" stroke="black"/>
<path d="M132.783,273.752v 3.69936" fill="none" stroke="black"/>
<path d="M145.382,273.752v 3.69936" fill="none" stroke="black"/>
<path d="M157.98,270.053v 7.39871" fill="none" stroke="black"/>
<path d="M170.579,273.752v 3.69936" fill="none" stroke="black"/>
<path d="M183.177,273.752v 3.69936" fill="none" stroke="black"/>
<path d="M195.776,273.752v 3.69936" fill="none" stroke="black"/>
<path d="M208.374,270.053v 7.39871" fill="none" stroke="black"/>
<path d="M220.972,273.752v 3.69936" fill="none" stroke="black"/>
<path d="M233.571,273.752v 3.69936" fill="none" stroke="black"/>
<path d="M246.169,273.752v 3.69936" fill="none" stroke="black"/>
<path d="M258.768,270.053v 7.39871" fill="none" stroke="black"/>
<path d="M271.366,273.752v 3.69936" fill="none" stroke="black"/>
<path d="M283.965,273.752v 3.69936" fill="none" stroke="black"/>
<path d="M296.563,273.752v 3.69936" fill="none" stroke="black"/>
<path d="M309.161,270.053v 7.39871" fill="none" stroke="black"/>
<path d="M321.76,273.752v 3.69936" fill="none" stroke="black"/>
<path d="M334.358,273.752v 3.69936" fill="none" stroke="black"/>
<path d="M346.957,273.752v 3.69936" fill="none" stroke="black"/>
<path d="M359.555,270.053v 7.39871" fill="none" stroke="black"/>
<path d="M372.154,273.752v 3.69936" fill="none" stroke="black"/>
<path d="M384.752,273.752v 3.69936" fill="none" stroke="black"/>
<path d="M397.35,273.752v 3.69936" fill="none" stroke="black"/>
<path d="M409.949,270.053v 7.39871" fill="none" stroke="black"/>
<path d="M422.547,273.752v 3.69936" fill="none" stroke="black"/>
<path d="M435.146,273.752v 3.69936" fill="none" stroke="black"/>
<path d="M447.744,273.752v 3.69936" fill="none" stroke="black"/>
<path d="M460.343,270.053v 7.39871" fill="none" stroke="black"/>
<path d="M472.941,273.752v 3.69936" fill="none" stroke="black"/>
<path d="M485.539,273.752v 3.69936" fill="none" stroke="black"/>
<path d="M498.138,273.752v 3.69936" fill="none" stroke="black"/>
<path d="M510.736,270.053v 7.39871" fill="none" stroke="black"/>
<text x="53.9479" y="287.282" fill="black" font-size="10.3989" font-family="Helvetica">
0
</text>
<text x="101.669" y="287.282" fill="black" font-size="10.3989" font-family="Helvetica">
20
</text>
<text x="152.254" y="287.282" fill="black" font-size="10.3989" font-family="Helvetica">
40
</text>
<text x="201.884" y="287.282" fill="black" font-size="10.3989" font-family="Helvetica">
60
</text>
<text x="252.469" y="287.282" fill="black" font-size="10.3989" font-family="Helvetica">
80
</text>
<text x="300.19" y="287.282" fill="black" font-size="10.3989" font-family="Helvetica">
100
</text>
<text x="350.774" y="287.282" fill="black" font-size="10.3989" font-family="Helvetica">
120
</text>
<text x="401.359" y="287.282" fill="black" font-size="10.3989" font-family="Helvetica">
140
</text>
<text x="450.989" y="287.282" fill="black" font-size="10.3989" font-family="Helvetica">
160
</text>
<text x="501.574" y="287.282" fill="black" font-size="10.3989" font-family="Helvetica">
180
</text>
<path d="M57.1929,277.452v -246.624" fill="none" stroke="black"/>
<g transform="rotate(-90,28.1784,151.754)">
<text x="28.1784" y="151.754" fill="black" font-size="10.3989" font-family="Helvetica">
 Number of beam photons
</text>
</g>
<path d="M70.7992,277.452h -13.6063" fill="none" stroke="black"/>
<path d="M63.9961,267.105h -6.80315" fill="none" stroke="black"/>
<path d="M63.9961,256.757h -6.80315" fill="none" stroke="black"/>
<path d="M63.9961,246.41h -6.80315" fill="none" stroke="black"/>
<path d="M70.7992,236.063h -13.6063" fill="none" stroke="black"/>
<path d="M63.9961,225.716h -6.80315" fill="none" stroke="black"/>
<path d="M63.9961,215.369h -6.80315" fill="none" stroke="black"/>
<path d="M63.9961,205.022h -6.80315" fill="none" stroke="black"/>
<path d="M70.7992,194.675h -13.6063" fill="none" stroke="black"/>
<path d="M63.9961,184.328h -6.80315" fill="none" stroke="black"/>
<path d="M63.9961,173.98h -6.80315" fill="none" stroke="black"/>
<path d="M63.9961,163.633h -6.80315" fill="none" stroke="black"/>
<path d="M70.7992,153.286h -13.6063" fill="none" stroke="black"/>
<path d="M63.9961,142.939h -6.80315" fill="none" stroke="black"/>
<path d="M63.9961,132.592h -6.80315" fill="none" stroke="black"/>
<path d="M63.9961,122.245h -6.80315" fill="none" stroke="black"/>
<path d="M70.7992,111.898h -13.6063" fill="none" stroke="black"/>
<path d="M63.9961,101.551h -6.80315" fill="none" stroke="black"/>
<path d="M63.9961,91.2034h -6.80315" fill="none" stroke="black"/>
<path d="M63.9961,80.8563h -6.80315" fill="none" stroke="black"/>
<path d="M70.7992,70.5092h -13.6063" fill="none" stroke="black"/>
<path d="M70.7992,70.5092h -13.6063" fill="none" stroke="black"/>
<path d="M63.9961,60.1621h -6.80315" fill="none" stroke="black"/>
<path d="M63.9961,49.8149h -6.80315" fill="none" stroke="black"/>
<path d="M63.9961,39.4678h -6.80315" fill="none" stroke="black"/>
<text x="48.2213" y="281.556" fill="black" font-size="10.3989" font-family="Helvetica">
0
</text>
<text x="36.7682" y="240.515" fill="black" font-size="10.3989" font-family="Helvetica">
200
</text>
<text x="36.7682" y="198.521" fill="black" font-size="10.3989" font-family="Helvetica">
400
</text>
<text x="36.7682" y="157.48" fill="black" font-size="10.3989" font-family="Helvetica">
600
</text>
<text x="36.7682" y="116.44" fill="black" font-size="10.3989" font-family="Helvetica">
800
</text>
<text x="30.0872" y="74.4452" fill="black" font-size="10.3989" font-family="Helvetica">
1000
</text>
<rect x="442.705" y="20.0382" width="113.386" height="49.3247" fill="white"/>
<path d="M442.705,69.3629h 113.386" fill="none" stroke="black"/>
<path d="M556.091,69.3629v -49.3247" fill="none" stroke="black"/>
<path d="M556.091,20.0382h -113.386" fill="none" stroke="black"/>
<path d="M442.705,20.0382v 49.3247" fill="none" stroke="black"/>
<text x="459.579" y="29.5872" fill="black" font-size="10.908" font-family="Helvetica">
hbeamsegthdet2
</text>
<path d="M442.705,32.3694h 113.386" fill="none" stroke="black"/>
<text x="448.126" y="42.9492" fill="black" font-size="10.908" font-family="Helvetica">
Entries 
</text>
<text x="517.799" y="42.9492" fill="black" font-size="10.908" font-family="Helvetica">
 34472
</text>
<text x="448.126" y="55.3567" fill="black" font-size="10.908" font-family="Helvetica">
Mean  
</text>
<text x="517.799" y="55.3567" fill="black" font-size="10.908" font-family="Helvetica">
  79.04
</text>
<text x="448.126" y="67.7643" fill="black" font-size="10.908" font-family="Helvetica">
Std Dev   
</text>
<text x="517.799" y="67.7643" fill="black" font-size="10.908" font-family="Helvetica">
  14.64
</text>
<text x="152.254" y="15.2708" fill="black" font-size="15.6833" font-family="Helvetica">
Start angles of detected beam photons
</text></svg>
